{
	"info": {
		"_postman_id": "ff652ca0-aee5-47dc-a00e-fd504e1ac641",
		"name": "Gomez.RiseOfHeroes",
		"schema": "https://schema.getpostman.com/json/collection/v2.1.0/collection.json"
	},
	"item": [
		{
			"name": "https://localhost:44311/api/token",
			"event": [
				{
					"listen": "test",
					"script": {
						"id": "f7e925fa-a475-4766-ae2a-c9e5aa40d1e7",
						"exec": [
							"",
							"pm.test(\"Status code is 200\", function () {",
							"    pm.response.to.have.status(200);",
							"    var jsonData = pm.response.json();",
							"    pm.environment.set(\"token\", jsonData.token);",
							"    pm.environment.set(\"refreshToken\", jsonData.refreshToken.token);",
							"});"
						],
						"type": "text/javascript"
					}
				}
			],
			"request": {
				"method": "POST",
				"header": [
					{
						"key": "Content-Type",
						"name": "Content-Type",
						"value": "application/json;charset=utf-8",
						"type": "text"
					}
				],
				"body": {
					"mode": "raw",
					"raw": "{\"email\":\"admin@riseofheroes.online\",\"password\":\"Password!1\"}"
				},
				"url": {
					"raw": "https://localhost:44311/api/token?returnUrl=",
					"protocol": "https",
					"host": [
						"localhost"
					],
					"port": "44311",
					"path": [
						"api",
						"token"
					],
					"query": [
						{
							"key": "returnUrl",
							"value": ""
						}
					]
				}
			},
			"response": []
		},
		{
			"name": "https://localhost:44311/signin-microsoft",
			"event": [
				{
					"listen": "test",
					"script": {
						"id": "f7e925fa-a475-4766-ae2a-c9e5aa40d1e7",
						"exec": [
							""
						],
						"type": "text/javascript"
					}
				}
			],
			"request": {
				"method": "GET",
				"header": [
					{
						"key": "Content-Type",
						"name": "Content-Type",
						"type": "text",
						"value": "application/json;charset=utf-8"
					}
				],
				"url": {
					"raw": "https://localhost:44311/api/externaltoken",
					"protocol": "https",
					"host": [
						"localhost"
					],
					"port": "44311",
					"path": [
						"api",
						"externaltoken"
					]
				},
				"description": "broken. todo."
			},
			"response": []
		},
		{
			"name": "https://localhost:44311/api/token/refresh",
			"event": [
				{
					"listen": "test",
					"script": {
						"id": "f7e925fa-a475-4766-ae2a-c9e5aa40d1e7",
						"exec": [
							""
						],
						"type": "text/javascript"
					}
				}
			],
			"request": {
				"method": "POST",
				"header": [
					{
						"key": "Content-Type",
						"name": "Content-Type",
						"type": "text",
						"value": "application/json;charset=utf-8"
					}
				],
				"body": {
					"mode": "raw",
					"raw": "{\"token\":\"{{token}}\",\"refreshToken\":\"{{refreshToken}}\"}"
				},
				"url": {
					"raw": "https://localhost:44311/api/token/refresh",
					"protocol": "https",
					"host": [
						"localhost"
					],
					"port": "44311",
					"path": [
						"api",
						"token",
						"refresh"
					]
				}
			},
			"response": []
		},
		{
			"name": "https://localhost:44311/api/game/players",
			"request": {
				"auth": {
					"type": "bearer",
					"bearer": [
						{
							"key": "token",
							"value": "{{token}}",
							"type": "string"
						}
					]
				},
				"method": "POST",
				"header": [],
				"url": {
					"raw": "https://localhost:44311/api/game/players",
					"protocol": "https",
					"host": [
						"localhost"
					],
					"port": "44311",
					"path": [
						"api",
						"game",
						"players"
					]
				}
			},
			"response": []
		},
		{
			"name": "https://localhost:44311/api/game/players/basic",
			"request": {
				"auth": {
					"type": "bearer",
					"bearer": [
						{
							"key": "token",
							"value": "{{token}}",
							"type": "string"
						}
					]
				},
				"method": "GET",
				"header": [],
				"url": {
					"raw": "https://localhost:44311/api/game/players/basic",
					"protocol": "https",
					"host": [
						"localhost"
					],
					"port": "44311",
					"path": [
						"api",
						"game",
						"players",
						"basic"
					]
				}
			},
			"response": []
		},
		{
			"name": "https://localhost:44311/api/game/players/inventory",
			"request": {
				"auth": {
					"type": "bearer",
					"bearer": [
						{
							"key": "token",
							"value": "{{token}}",
							"type": "string"
						}
					]
				},
				"method": "GET",
				"header": [],
				"url": {
					"raw": "https://localhost:44311/api/game/players/inventory",
					"protocol": "https",
					"host": [
						"localhost"
					],
					"port": "44311",
					"path": [
						"api",
						"game",
						"players",
						"inventory"
					]
				}
			},
			"response": []
		},
		{
			"name": "https://localhost:44311/api/game/players/inventory/use",
			"request": {
				"auth": {
					"type": "bearer",
					"bearer": [
						{
							"key": "token",
							"value": "{{token}}",
							"type": "string"
						}
					]
				},
				"method": "GET",
				"header": [],
				"url": {
					"raw": "https://localhost:44311/api/game/players/inventory/10000004/use",
					"protocol": "https",
					"host": [
						"localhost"
					],
					"port": "44311",
					"path": [
						"api",
						"game",
						"players",
						"inventory",
						"10000004",
						"use"
					]
				}
			},
			"response": []
		},
		{
			"name": "https://localhost:44311/api/localization/?id=GameResource",
			"request": {
				"auth": {
					"type": "noauth"
				},
				"method": "GET",
				"header": [],
				"url": {
					"raw": "https://localhost:44311/api/localization?id=GameResource",
					"protocol": "https",
					"host": [
						"localhost"
					],
					"port": "44311",
					"path": [
						"api",
						"localization"
					],
					"query": [
						{
							"key": "id",
							"value": "GameResource"
						}
					]
				}
			},
			"response": []
		},
		{
			"name": "https://localhost:44311/api/game/players/basic",
			"request": {
				"auth": {
					"type": "bearer",
					"bearer": [
						{
							"key": "token",
							"value": "{{token}}",
							"type": "string"
						}
					]
				},
				"method": "PATCH",
				"header": [
					{
						"key": "Content-Type",
						"name": "Content-Type",
						"value": "application/json",
						"type": "text"
					}
				],
				"body": {
					"mode": "raw",
					"raw": "{name:\"TestName\"}",
					"options": {
						"raw": {
							"language": "json"
						}
					}
				},
				"url": {
					"raw": "https://localhost:44311/api/game/players/basic",
					"protocol": "https",
					"host": [
						"localhost"
					],
					"port": "44311",
					"path": [
						"api",
						"game",
						"players",
						"basic"
					]
				}
			},
			"response": []
		},
		{
			"name": "https://localhost:44311/api/game/players/",
			"request": {
				"auth": {
					"type": "bearer",
					"bearer": [
						{
							"key": "token",
							"value": "{{token}}",
							"type": "string"
						}
					]
				},
				"method": "DELETE",
				"header": [],
				"url": {
					"raw": "https://localhost:44311/api/game/players",
					"protocol": "https",
					"host": [
						"localhost"
					],
					"port": "44311",
					"path": [
						"api",
						"game",
						"players"
					]
				}
			},
			"response": []
		},
		{
			"name": "https://localhost:44311/api/game/players/attributes",
			"request": {
				"auth": {
					"type": "bearer",
					"bearer": [
						{
							"key": "token",
							"value": "{{token}}",
							"type": "string"
						}
					]
				},
				"method": "PATCH",
				"header": [
					{
						"key": "Content-Type",
						"name": "Content-Type",
						"value": "application/json",
						"type": "text"
					}
				],
				"body": {
					"mode": "raw",
					"raw": "{strength:1}",
					"options": {
						"raw": {
							"language": "json"
						}
					}
				},
				"url": {
					"raw": "https://localhost:44311/api/game/players/attributes",
					"protocol": "https",
					"host": [
						"localhost"
					],
					"port": "44311",
					"path": [
						"api",
						"game",
						"players",
						"attributes"
					]
				}
			},
			"response": []
		},
		{
			"name": "https://localhost:44311/api/game/players/travel/...",
			"request": {
				"auth": {
					"type": "bearer",
					"bearer": [
						{
							"key": "token",
							"value": "{{token}}",
							"type": "string"
						}
					]
				},
				"method": "PATCH",
				"header": [
					{
						"key": "Content-Type",
						"name": "Content-Type",
						"type": "text",
						"value": "application/json"
					}
				],
				"body": {
					"mode": "raw",
					"raw": "{strength:1}",
					"options": {
						"raw": {
							"language": "json"
						}
					}
				},
				"url": {
					"raw": "https://localhost:44311/api/game/players/travel/8ad83b8b-48ba-4ee2-a804-0e46b5588ccb",
					"protocol": "https",
					"host": [
						"localhost"
					],
					"port": "44311",
					"path": [
						"api",
						"game",
						"players",
						"travel",
						"8ad83b8b-48ba-4ee2-a804-0e46b5588ccb"
					]
				}
			},
			"response": []
		},
		{
			"name": "https://localhost:44311/api/game/npcenemies/1/basic",
			"request": {
				"auth": {
					"type": "bearer",
					"bearer": [
						{
							"key": "token",
							"value": "{{token}}",
							"type": "string"
						}
					]
				},
				"method": "GET",
				"header": [],
				"url": {
					"raw": "https://localhost:44311/api/game/npcenemies/1/basic",
					"protocol": "https",
					"host": [
						"localhost"
					],
					"port": "44311",
					"path": [
						"api",
						"game",
						"npcenemies",
						"1",
						"basic"
					]
				}
			},
			"response": []
		},
		{
			"name": "https://localhost:44311/api/game/npcenemies",
			"request": {
				"auth": {
					"type": "bearer",
					"bearer": [
						{
							"key": "token",
							"value": "{{token}}",
							"type": "string"
						}
					]
				},
				"method": "GET",
				"header": [],
				"url": {
					"raw": "https://localhost:44311/api/game/npcenemies",
					"protocol": "https",
					"host": [
						"localhost"
					],
					"port": "44311",
					"path": [
						"api",
						"game",
						"npcenemies"
					]
				}
			},
			"response": []
		},
		{
			"name": "https://localhost:44311/api/game/npcenemies?locationid=Haiwood",
			"request": {
				"auth": {
					"type": "bearer",
					"bearer": [
						{
							"key": "token",
							"value": "{{token}}",
							"type": "string"
						}
					]
				},
				"method": "GET",
				"header": [],
				"url": {
					"raw": "https://localhost:44311/api/game/npcenemies?locationId=4B5A5893-0DE9-42E1-B8A3-F0DE3B75AFB5",
					"protocol": "https",
					"host": [
						"localhost"
					],
					"port": "44311",
					"path": [
						"api",
						"game",
						"npcenemies"
					],
					"query": [
						{
							"key": "locationId",
							"value": "4B5A5893-0DE9-42E1-B8A3-F0DE3B75AFB5"
						}
					]
				}
			},
			"response": []
		},
		{
			"name": "https://localhost:44311/api/game/locations",
			"request": {
				"auth": {
					"type": "bearer",
					"bearer": [
						{
							"key": "token",
							"value": "{{token}}",
							"type": "string"
						}
					]
				},
				"method": "GET",
				"header": [],
				"url": {
					"raw": "https://localhost:44311/api/game/locations",
					"protocol": "https",
					"host": [
						"localhost"
					],
					"port": "44311",
					"path": [
						"api",
						"game",
						"locations"
					]
				}
			},
			"response": []
		},
		{
			"name": "https://localhost:44311/api/game/locations?currentPosition.x=4",
			"request": {
				"auth": {
					"type": "bearer",
					"bearer": [
						{
							"key": "token",
							"value": "{{token}}",
							"type": "string"
						}
					]
				},
				"method": "GET",
				"header": [],
				"url": {
					"raw": "https://localhost:44311/api/game/locations?currentPosition.x=4&CurrentPosition.y=5",
					"protocol": "https",
					"host": [
						"localhost"
					],
					"port": "44311",
					"path": [
						"api",
						"game",
						"locations"
					],
					"query": [
						{
							"key": "currentPosition.x",
							"value": "4"
						},
						{
							"key": "CurrentPosition.y",
							"value": "5"
						}
					]
				}
			},
			"response": []
		},
		{
			"name": "https://localhost:44311/api/game/bycoord",
			"request": {
				"auth": {
					"type": "bearer",
					"bearer": [
						{
							"key": "token",
							"value": "{{token}}",
							"type": "string"
						}
					]
				},
				"method": "GET",
				"header": [],
				"url": {
					"raw": "https://localhost:44311/api/game/locations/bycoord?x=4&y=5",
					"protocol": "https",
					"host": [
						"localhost"
					],
					"port": "44311",
					"path": [
						"api",
						"game",
						"locations",
						"bycoord"
					],
					"query": [
						{
							"key": "x",
							"value": "4"
						},
						{
							"key": "y",
							"value": "5"
						}
					]
				}
			},
			"response": []
		},
		{
			"name": "https://localhost:44311/api/game/locations/4B5A5893-0DE9-42E1-B8A3-F0DE3B75AFB5",
			"request": {
				"auth": {
					"type": "bearer",
					"bearer": [
						{
							"key": "token",
							"value": "{{token}}",
							"type": "string"
						}
					]
				},
				"method": "GET",
				"header": [],
				"url": {
					"raw": "https://localhost:44311/api/game/locations/4B5A5893-0DE9-42E1-B8A3-F0DE3B75AFB5",
					"protocol": "https",
					"host": [
						"localhost"
					],
					"port": "44311",
					"path": [
						"api",
						"game",
						"locations",
						"4B5A5893-0DE9-42E1-B8A3-F0DE3B75AFB5"
					]
				}
			},
			"response": []
		},
		{
			"name": "https://localhost:44311/api/game/locations/8ad83b8b-48ba-4ee2-a804-0e46b5588ccb",
			"request": {
				"auth": {
					"type": "bearer",
					"bearer": [
						{
							"key": "token",
							"value": "{{token}}",
							"type": "string"
						}
					]
				},
				"method": "GET",
				"header": [],
				"url": {
					"raw": "https://localhost:44311/api/game/locations/8ad83b8b-48ba-4ee2-a804-0e46b5588ccb",
					"protocol": "https",
					"host": [
						"localhost"
					],
					"port": "44311",
					"path": [
						"api",
						"game",
						"locations",
						"8ad83b8b-48ba-4ee2-a804-0e46b5588ccb"
					]
				}
			},
			"response": []
		},
		{
			"name": "https://localhost:44311/api/game/battles/targettypes",
			"request": {
				"auth": {
					"type": "bearer",
					"bearer": [
						{
							"key": "token",
							"value": "{{token}}",
							"type": "string"
						}
					]
				},
				"method": "GET",
				"header": [],
				"url": {
					"raw": "https://localhost:44311/api/game/battles/targettypes",
					"protocol": "https",
					"host": [
						"localhost"
					],
					"port": "44311",
					"path": [
						"api",
						"game",
						"battles",
						"targettypes"
					]
				}
			},
			"response": []
		},
		{
			"name": "https://localhost:44311/api/game/battles/tactictypes",
			"request": {
				"auth": {
					"type": "bearer",
					"bearer": [
						{
							"key": "token",
							"value": "{{token}}",
							"type": "string"
						}
					]
				},
				"method": "GET",
				"header": [],
				"url": {
					"raw": "https://localhost:44311/api/game/battles/tactictypes",
					"protocol": "https",
					"host": [
						"localhost"
					],
					"port": "44311",
					"path": [
						"api",
						"game",
						"battles",
						"tactictypes"
					]
				}
			},
			"response": []
		},
		{
			"name": "https://localhost:44311/api/game/npcenemies/1/attacksingle",
			"request": {
				"auth": {
					"type": "bearer",
					"bearer": [
						{
							"key": "token",
							"value": "{{token}}",
							"type": "string"
						}
					]
				},
				"method": "POST",
				"header": [
					{
						"key": "Content-Type",
						"name": "Content-Type",
						"value": "application/json",
						"type": "text"
					}
				],
				"body": {
					"mode": "raw",
					"raw": "{ \"option\": { \"tactic\" : 0, \"target\": 0, \"retreatAtHealthPercent\": 40.0 } }",
					"options": {
						"raw": {
							"language": "json"
						}
					}
				},
				"url": {
					"raw": "https://localhost:44311/api/game/npcenemies/1/attacksingle",
					"protocol": "https",
					"host": [
						"localhost"
					],
					"port": "44311",
					"path": [
						"api",
						"game",
						"npcenemies",
						"1",
						"attacksingle"
					]
				}
			},
			"response": []
		},
		{
			"name": "https://localhost:44311/api/game/npcenemies/1/inlocation",
			"request": {
				"auth": {
					"type": "bearer",
					"bearer": [
						{
							"key": "token",
							"value": "{{token}}",
							"type": "string"
						}
					]
				},
				"method": "POST",
				"header": [
					{
						"key": "Content-Type",
						"name": "Content-Type",
						"type": "text",
						"value": "application/json"
					}
				],
				"body": {
					"mode": "raw",
					"raw": "{ id: 1,\"coordinate\": { \"x\":0,\"y\":0 } }",
					"options": {
						"raw": {
							"language": "json"
						}
					}
				},
				"url": {
					"raw": "https://localhost:44311/api/game/npcenemies/1/inlocation",
					"protocol": "https",
					"host": [
						"localhost"
					],
					"port": "44311",
					"path": [
						"api",
						"game",
						"npcenemies",
						"1",
						"inlocation"
					]
				}
			},
			"response": []
		},
		{
			"name": "https://localhost:44311/api/game/npcenemies/1/equipments",
			"protocolProfileBehavior": {
				"disableBodyPruning": true
			},
			"request": {
				"auth": {
					"type": "bearer",
					"bearer": [
						{
							"key": "token",
							"value": "{{token}}",
							"type": "string"
						}
					]
				},
				"method": "GET",
				"header": [
					{
						"key": "Content-Type",
						"name": "Content-Type",
						"type": "text",
						"value": "application/json"
					}
				],
				"body": {
					"mode": "raw",
					"raw": "{ id: 1,\"coordinate\": { \"x\":0,\"y\":0 } }",
					"options": {
						"raw": {
							"language": "json"
						}
					}
				},
				"url": {
					"raw": "https://localhost:44311/api/game/npcenemies/1/equipments",
					"protocol": "https",
					"host": [
						"localhost"
					],
					"port": "44311",
					"path": [
						"api",
						"game",
						"npcenemies",
						"1",
						"equipments"
					]
				}
			},
			"response": []
		},
		{
			"name": "https://localhost:44311/api/game/npcshops/2/inventory",
			"request": {
				"auth": {
					"type": "bearer",
					"bearer": [
						{
							"key": "token",
							"value": "{{token}}",
							"type": "string"
						}
					]
				},
				"method": "GET",
				"header": [],
				"url": {
					"raw": "https://localhost:44311/api/game/npcshops/2/inventory",
					"protocol": "https",
					"host": [
						"localhost"
					],
					"port": "44311",
					"path": [
						"api",
						"game",
						"npcshops",
						"2",
						"inventory"
					]
				}
			},
			"response": []
		},
		{
			"name": "https://localhost:44311/api/game/npcshops/inventory/buy/2",
			"request": {
				"auth": {
					"type": "bearer",
					"bearer": [
						{
							"key": "token",
							"value": "{{token}}",
							"type": "string"
						}
					]
				},
				"method": "POST",
				"header": [
					{
						"key": "",
						"value": "",
						"type": "text",
						"disabled": true
					}
				],
				"body": {
					"mode": "formdata",
					"formdata": [
						{
							"key": "Qty",
							"value": "1",
							"type": "text"
						}
					]
				},
				"url": {
					"raw": "https://localhost:44311/api/game/npcshops/inventory/buy/2",
					"protocol": "https",
					"host": [
						"localhost"
					],
					"port": "44311",
					"path": [
						"api",
						"game",
						"npcshops",
						"inventory",
						"buy",
						"2"
					]
				}
			},
			"response": []
		},
		{
			"name": "https://localhost:44311/api/game/npcshops/cron/inventory/refillforall",
			"request": {
				"auth": {
					"type": "bearer",
					"bearer": [
						{
							"key": "token",
							"value": "{{token}}",
							"type": "string"
						}
					]
				},
				"method": "GET",
				"header": [],
				"url": {
					"raw": "https://localhost:44311/api/game/npcshops/cron/inventory/refillforall",
					"protocol": "https",
					"host": [
						"localhost"
					],
					"port": "44311",
					"path": [
						"api",
						"game",
						"npcshops",
						"cron",
						"inventory",
						"refillforall"
					]
				}
			},
			"response": []
		},
		{
			"name": "https://localhost:44311/api/game/items/6",
			"request": {
				"auth": {
					"type": "bearer",
					"bearer": [
						{
							"key": "token",
							"value": "{{token}}",
							"type": "string"
						}
					]
				},
				"method": "GET",
				"header": [],
				"url": {
					"raw": "https://localhost:44311/api/game/items/2",
					"protocol": "https",
					"host": [
						"localhost"
					],
					"port": "44311",
					"path": [
						"api",
						"game",
						"items",
						"2"
					]
				}
			},
			"response": []
		},
		{
			"name": "https://localhost:44311/api/game/blackjack/5",
			"request": {
				"auth": {
					"type": "bearer",
					"bearer": [
						{
							"key": "token",
							"value": "{{token}}",
							"type": "string"
						}
					]
				},
				"method": "POST",
				"header": [
					{
						"key": "",
						"value": "",
						"type": "text",
						"disabled": true
					},
					{
						"key": "Content-Type",
						"name": "Content-Type",
						"value": "application/json",
						"type": "text"
					}
				],
				"body": {
					"mode": "raw",
					"raw": "{stake:1}",
					"options": {
						"raw": {
							"language": "json"
						}
					}
				},
				"url": {
					"raw": "https://localhost:44311/api/game/blackjack/5",
					"protocol": "https",
					"host": [
						"localhost"
					],
					"port": "44311",
					"path": [
						"api",
						"game",
						"blackjack",
						"5"
					]
				}
			},
			"response": []
		},
		{
			"name": "https://localhost:44311/api/game/blackjack/5",
			"request": {
				"auth": {
					"type": "bearer",
					"bearer": [
						{
							"key": "token",
							"value": "{{token}}",
							"type": "string"
						}
					]
				},
				"method": "GET",
				"header": [
					{
						"key": "",
						"type": "text",
						"value": "",
						"disabled": true
					},
					{
						"key": "Content-Type",
						"name": "Content-Type",
						"type": "text",
						"value": "application/json"
					}
				],
				"url": {
					"raw": "https://localhost:44311/api/game/BlackJack/5",
					"protocol": "https",
					"host": [
						"localhost"
					],
					"port": "44311",
					"path": [
						"api",
						"game",
						"BlackJack",
						"5"
					]
				}
			},
			"response": []
		}
	],
	"protocolProfileBehavior": {}
}